db_gene_internal_id,name,id
01ec4881-8113-1ea4-a339-bfd9a338b6ab,STS,STS
01ec4881-8114-1ea4-a339-bfd9a338b6ab,Avionics,AVI
01ec4881-8115-1ea4-a339-bfd9a338b6ab,Structure,STR
01ec4881-8116-1ea4-a339-bfd9a338b6ab,M2,M2
01ec4881-8117-1ea4-a339-bfd9a338b6ab,M1,M1
01ec4881-8118-1ea4-a339-bfd9a338b6ab,Internals,INT
01ec4881-8119-1ea4-a339-bfd9a338b6ab,NDT,NDT
01ec4881-811a-1ea4-a339-bfd9a338b6ab,CMP,CMP
01ec4881-811b-1ea4-a339-bfd9a338b6ab,Paint,PNT
